<mxfile host="app.diagrams.net" modified="2021-11-30T02:59:58.051Z" agent="5.0 (Macintosh)" etag="gd_oYGLU-TBaDAKg2IbN" version="15.8.7" type="gitlab">
  <diagram id="fBkRrqNpC5bZfuBrryoz" name="Page-1">
    <mxGraphModel dx="679" dy="462" grid="1" gridSize="10" guides="1" tooltips="1" connect="1" arrows="1" fold="1" page="1" pageScale="1" pageWidth="827" pageHeight="1169" math="0" shadow="0">
      <root>
        <mxCell id="0" />
        <mxCell id="1" parent="0" />
        <mxCell id="CcUOpMH7Fz_gkyTKnZBL-1" value="&lt;h1&gt;G30Gxx - Diseño de la Aplicación&lt;br&gt;&lt;/h1&gt;&lt;p&gt;Lorem ipsum dolor sit amet, consectetur adipisicing elit, sed do eiusmod tempor incididunt ut labore et dolore magna aliqua.&lt;/p&gt;" style="text;html=1;strokeColor=none;fillColor=none;spacing=5;spacingTop=-20;whiteSpace=wrap;overflow=hidden;rounded=0;" parent="1" vertex="1">
          <mxGeometry x="160" y="80" width="420" height="120" as="geometry" />
        </mxCell>
        <mxCell id="CcUOpMH7Fz_gkyTKnZBL-2" value="Class A" style="swimlane;fontStyle=0;childLayout=stackLayout;horizontal=1;startSize=26;fillColor=none;horizontalStack=0;resizeParent=1;resizeParentMax=0;resizeLast=0;collapsible=1;marginBottom=0;" parent="1" vertex="1">
          <mxGeometry x="290" y="240" width="140" height="104" as="geometry" />
        </mxCell>
        <mxCell id="CcUOpMH7Fz_gkyTKnZBL-3" value="+ field: type" style="text;strokeColor=none;fillColor=none;align=left;verticalAlign=top;spacingLeft=4;spacingRight=4;overflow=hidden;rotatable=0;points=[[0,0.5],[1,0.5]];portConstraint=eastwest;" parent="CcUOpMH7Fz_gkyTKnZBL-2" vertex="1">
          <mxGeometry y="26" width="140" height="26" as="geometry" />
        </mxCell>
        <mxCell id="CcUOpMH7Fz_gkyTKnZBL-4" value="+ field: type" style="text;strokeColor=none;fillColor=none;align=left;verticalAlign=top;spacingLeft=4;spacingRight=4;overflow=hidden;rotatable=0;points=[[0,0.5],[1,0.5]];portConstraint=eastwest;" parent="CcUOpMH7Fz_gkyTKnZBL-2" vertex="1">
          <mxGeometry y="52" width="140" height="26" as="geometry" />
        </mxCell>
        <mxCell id="CcUOpMH7Fz_gkyTKnZBL-5" value="+ field: type" style="text;strokeColor=none;fillColor=none;align=left;verticalAlign=top;spacingLeft=4;spacingRight=4;overflow=hidden;rotatable=0;points=[[0,0.5],[1,0.5]];portConstraint=eastwest;" parent="CcUOpMH7Fz_gkyTKnZBL-2" vertex="1">
          <mxGeometry y="78" width="140" height="26" as="geometry" />
        </mxCell>
        <mxCell id="CcUOpMH7Fz_gkyTKnZBL-14" style="edgeStyle=orthogonalEdgeStyle;rounded=0;orthogonalLoop=1;jettySize=auto;html=1;entryX=0.236;entryY=1;entryDx=0;entryDy=0;entryPerimeter=0;" parent="1" source="CcUOpMH7Fz_gkyTKnZBL-6" target="CcUOpMH7Fz_gkyTKnZBL-5" edge="1">
          <mxGeometry relative="1" as="geometry" />
        </mxCell>
        <mxCell id="CcUOpMH7Fz_gkyTKnZBL-6" value="Class B" style="swimlane;fontStyle=0;childLayout=stackLayout;horizontal=1;startSize=26;fillColor=none;horizontalStack=0;resizeParent=1;resizeParentMax=0;resizeLast=0;collapsible=1;marginBottom=0;" parent="1" vertex="1">
          <mxGeometry x="120" y="440" width="140" height="156" as="geometry" />
        </mxCell>
        <mxCell id="CcUOpMH7Fz_gkyTKnZBL-17" value="+ field: type" style="text;strokeColor=none;fillColor=none;align=left;verticalAlign=top;spacingLeft=4;spacingRight=4;overflow=hidden;rotatable=0;points=[[0,0.5],[1,0.5]];portConstraint=eastwest;" parent="CcUOpMH7Fz_gkyTKnZBL-6" vertex="1">
          <mxGeometry y="26" width="140" height="26" as="geometry" />
        </mxCell>
        <mxCell id="CcUOpMH7Fz_gkyTKnZBL-7" value="+ field: type" style="text;strokeColor=none;fillColor=none;align=left;verticalAlign=top;spacingLeft=4;spacingRight=4;overflow=hidden;rotatable=0;points=[[0,0.5],[1,0.5]];portConstraint=eastwest;" parent="CcUOpMH7Fz_gkyTKnZBL-6" vertex="1">
          <mxGeometry y="52" width="140" height="26" as="geometry" />
        </mxCell>
        <mxCell id="CcUOpMH7Fz_gkyTKnZBL-8" value="+ field: type" style="text;strokeColor=none;fillColor=none;align=left;verticalAlign=top;spacingLeft=4;spacingRight=4;overflow=hidden;rotatable=0;points=[[0,0.5],[1,0.5]];portConstraint=eastwest;" parent="CcUOpMH7Fz_gkyTKnZBL-6" vertex="1">
          <mxGeometry y="78" width="140" height="26" as="geometry" />
        </mxCell>
        <mxCell id="CcUOpMH7Fz_gkyTKnZBL-16" value="+ field: type" style="text;strokeColor=none;fillColor=none;align=left;verticalAlign=top;spacingLeft=4;spacingRight=4;overflow=hidden;rotatable=0;points=[[0,0.5],[1,0.5]];portConstraint=eastwest;" parent="CcUOpMH7Fz_gkyTKnZBL-6" vertex="1">
          <mxGeometry y="104" width="140" height="26" as="geometry" />
        </mxCell>
        <mxCell id="CcUOpMH7Fz_gkyTKnZBL-9" value="+ field: type" style="text;strokeColor=none;fillColor=none;align=left;verticalAlign=top;spacingLeft=4;spacingRight=4;overflow=hidden;rotatable=0;points=[[0,0.5],[1,0.5]];portConstraint=eastwest;" parent="CcUOpMH7Fz_gkyTKnZBL-6" vertex="1">
          <mxGeometry y="130" width="140" height="26" as="geometry" />
        </mxCell>
        <mxCell id="CcUOpMH7Fz_gkyTKnZBL-15" style="edgeStyle=orthogonalEdgeStyle;rounded=0;orthogonalLoop=1;jettySize=auto;html=1;entryX=0.629;entryY=1;entryDx=0;entryDy=0;entryPerimeter=0;" parent="1" source="CcUOpMH7Fz_gkyTKnZBL-10" target="CcUOpMH7Fz_gkyTKnZBL-5" edge="1">
          <mxGeometry relative="1" as="geometry" />
        </mxCell>
        <mxCell id="CcUOpMH7Fz_gkyTKnZBL-10" value="Class C" style="swimlane;fontStyle=0;childLayout=stackLayout;horizontal=1;startSize=26;fillColor=none;horizontalStack=0;resizeParent=1;resizeParentMax=0;resizeLast=0;collapsible=1;marginBottom=0;" parent="1" vertex="1">
          <mxGeometry x="440" y="440" width="140" height="104" as="geometry" />
        </mxCell>
        <mxCell id="CcUOpMH7Fz_gkyTKnZBL-11" value="+ field: type" style="text;strokeColor=none;fillColor=none;align=left;verticalAlign=top;spacingLeft=4;spacingRight=4;overflow=hidden;rotatable=0;points=[[0,0.5],[1,0.5]];portConstraint=eastwest;" parent="CcUOpMH7Fz_gkyTKnZBL-10" vertex="1">
          <mxGeometry y="26" width="140" height="26" as="geometry" />
        </mxCell>
        <mxCell id="CcUOpMH7Fz_gkyTKnZBL-12" value="+ field: type" style="text;strokeColor=none;fillColor=none;align=left;verticalAlign=top;spacingLeft=4;spacingRight=4;overflow=hidden;rotatable=0;points=[[0,0.5],[1,0.5]];portConstraint=eastwest;" parent="CcUOpMH7Fz_gkyTKnZBL-10" vertex="1">
          <mxGeometry y="52" width="140" height="26" as="geometry" />
        </mxCell>
        <mxCell id="CcUOpMH7Fz_gkyTKnZBL-13" value="+ field: type" style="text;strokeColor=none;fillColor=none;align=left;verticalAlign=top;spacingLeft=4;spacingRight=4;overflow=hidden;rotatable=0;points=[[0,0.5],[1,0.5]];portConstraint=eastwest;" parent="CcUOpMH7Fz_gkyTKnZBL-10" vertex="1">
          <mxGeometry y="78" width="140" height="26" as="geometry" />
        </mxCell>
        <mxCell id="MnkRHGf9xQ03z4OjBpFB-1" value="&lt;h1&gt;Diseño Base de Datos NoSQL&lt;br&gt;&lt;/h1&gt;&lt;p&gt;Lorem ipsum dolor sit amet, consectetur adipisicing elit, sed do eiusmod tempor incididunt ut labore et dolore magna aliqua.&lt;/p&gt;" style="text;html=1;strokeColor=none;fillColor=none;spacing=5;spacingTop=-20;whiteSpace=wrap;overflow=hidden;rounded=0;" parent="1" vertex="1">
          <mxGeometry x="1200" y="70" width="440" height="120" as="geometry" />
        </mxCell>
        <mxCell id="MnkRHGf9xQ03z4OjBpFB-4" value="" style="edgeStyle=orthogonalEdgeStyle;rounded=0;orthogonalLoop=1;jettySize=auto;html=1;" parent="1" source="MnkRHGf9xQ03z4OjBpFB-2" target="MnkRHGf9xQ03z4OjBpFB-3" edge="1">
          <mxGeometry relative="1" as="geometry">
            <Array as="points">
              <mxPoint x="1280" y="400" />
              <mxPoint x="1280" y="270" />
            </Array>
          </mxGeometry>
        </mxCell>
        <mxCell id="MnkRHGf9xQ03z4OjBpFB-6" value="" style="edgeStyle=orthogonalEdgeStyle;rounded=0;orthogonalLoop=1;jettySize=auto;html=1;" parent="1" source="MnkRHGf9xQ03z4OjBpFB-2" target="MnkRHGf9xQ03z4OjBpFB-5" edge="1">
          <mxGeometry relative="1" as="geometry">
            <Array as="points">
              <mxPoint x="1280" y="400" />
              <mxPoint x="1280" y="555" />
            </Array>
          </mxGeometry>
        </mxCell>
        <mxCell id="MnkRHGf9xQ03z4OjBpFB-2" value="&lt;div style=&quot;font-size: 16px;&quot;&gt;NombreDB&lt;/div&gt;&lt;div style=&quot;font-size: 16px;&quot;&gt;&lt;br style=&quot;font-size: 16px;&quot;&gt;&lt;/div&gt;&lt;div style=&quot;font-size: 16px;&quot;&gt;TiendaVirtual&lt;br style=&quot;font-size: 16px;&quot;&gt;&lt;/div&gt;" style="rounded=1;whiteSpace=wrap;html=1;fontSize=16;" parent="1" vertex="1">
          <mxGeometry x="1080" y="370" width="120" height="60" as="geometry" />
        </mxCell>
        <mxCell id="MnkRHGf9xQ03z4OjBpFB-8" value="" style="edgeStyle=orthogonalEdgeStyle;rounded=0;orthogonalLoop=1;jettySize=auto;html=1;" parent="1" source="MnkRHGf9xQ03z4OjBpFB-3" target="MnkRHGf9xQ03z4OjBpFB-7" edge="1">
          <mxGeometry relative="1" as="geometry" />
        </mxCell>
        <mxCell id="MnkRHGf9xQ03z4OjBpFB-3" value="&lt;div style=&quot;font-size: 16px;&quot;&gt;Collections&lt;/div&gt;&lt;div style=&quot;font-size: 16px;&quot;&gt;&lt;br style=&quot;font-size: 16px;&quot;&gt;&lt;/div&gt;&lt;div style=&quot;font-size: 16px;&quot;&gt;Usuarios&lt;br style=&quot;font-size: 16px;&quot;&gt;&lt;/div&gt;" style="whiteSpace=wrap;html=1;rounded=1;fontSize=16;" parent="1" vertex="1">
          <mxGeometry x="1360" y="240" width="120" height="60" as="geometry" />
        </mxCell>
        <mxCell id="MnkRHGf9xQ03z4OjBpFB-12" value="" style="edgeStyle=orthogonalEdgeStyle;rounded=0;orthogonalLoop=1;jettySize=auto;html=1;fontSize=16;" parent="1" source="MnkRHGf9xQ03z4OjBpFB-5" target="MnkRHGf9xQ03z4OjBpFB-11" edge="1">
          <mxGeometry relative="1" as="geometry" />
        </mxCell>
        <mxCell id="MnkRHGf9xQ03z4OjBpFB-5" value="&lt;div style=&quot;font-size: 16px;&quot;&gt;Collections&lt;/div&gt;&lt;div style=&quot;font-size: 16px;&quot;&gt;&lt;br style=&quot;font-size: 16px;&quot;&gt;&lt;/div&gt;&lt;div style=&quot;font-size: 16px;&quot;&gt;Productos&lt;br style=&quot;font-size: 16px;&quot;&gt;&lt;/div&gt;" style="whiteSpace=wrap;html=1;rounded=1;fontSize=16;" parent="1" vertex="1">
          <mxGeometry x="1360" y="525" width="120" height="60" as="geometry" />
        </mxCell>
        <mxCell id="MnkRHGf9xQ03z4OjBpFB-7" value="&lt;blockquote&gt;&lt;div style=&quot;font-size: 16px&quot;&gt;Documents&lt;/div&gt;&lt;div style=&quot;font-size: 16px&quot;&gt;&lt;br style=&quot;font-size: 16px&quot;&gt;&lt;/div&gt;&lt;div style=&quot;font-size: 16px&quot;&gt;{&lt;/div&gt;&lt;div style=&quot;font-size: 16px&quot;&gt;&lt;span style=&quot;white-space: pre ; font-size: 16px&quot;&gt; &lt;/span&gt;id: int&lt;br style=&quot;font-size: 16px&quot;&gt;&lt;/div&gt;&lt;div style=&quot;font-size: 16px&quot;&gt;&lt;span style=&quot;white-space: pre&quot;&gt; &lt;/span&gt;nombre: string&lt;/div&gt;&lt;div style=&quot;font-size: 16px&quot;&gt;&lt;span style=&quot;white-space: pre&quot;&gt; &lt;/span&gt;apellido: string&lt;/div&gt;&lt;div style=&quot;font-size: 16px&quot;&gt;&lt;span style=&quot;white-space: pre&quot;&gt; &lt;/span&gt;email: string&lt;/div&gt;&lt;div style=&quot;font-size: 16px&quot;&gt;&lt;span style=&quot;white-space: pre&quot;&gt; &lt;/span&gt;psw: string-criptado&lt;br style=&quot;font-size: 16px&quot;&gt;&lt;/div&gt;&lt;div style=&quot;font-size: 16px&quot;&gt;}&lt;br style=&quot;font-size: 16px&quot;&gt;&lt;/div&gt;&lt;/blockquote&gt;" style="whiteSpace=wrap;html=1;rounded=1;align=left;fontSize=16;" parent="1" vertex="1">
          <mxGeometry x="1600" y="165" width="260" height="210" as="geometry" />
        </mxCell>
        <mxCell id="MnkRHGf9xQ03z4OjBpFB-11" value="&lt;blockquote style=&quot;font-size: 16px;&quot;&gt;&lt;div style=&quot;font-size: 16px;&quot;&gt;Documents&lt;/div&gt;&lt;div style=&quot;font-size: 16px;&quot;&gt;&lt;br style=&quot;font-size: 16px;&quot;&gt;&lt;/div&gt;&lt;div style=&quot;font-size: 16px;&quot;&gt;{&lt;/div&gt;&lt;div style=&quot;font-size: 16px;&quot;&gt;&lt;span style=&quot;white-space: pre; font-size: 16px;&quot;&gt; &lt;/span&gt;id: int,&lt;/div&gt;&lt;div style=&quot;font-size: 16px;&quot;&gt;&lt;span style=&quot;white-space: pre; font-size: 16px;&quot;&gt; &lt;/span&gt;nombre: string,&lt;/div&gt;&lt;div style=&quot;font-size: 16px;&quot;&gt;&lt;span style=&quot;white-space: pre; font-size: 16px;&quot;&gt; &lt;/span&gt;cantidad: int,&lt;/div&gt;&lt;div style=&quot;font-size: 16px;&quot;&gt;&lt;span style=&quot;white-space: pre; font-size: 16px;&quot;&gt; &lt;/span&gt;categoria: string,&lt;/div&gt;&lt;div style=&quot;font-size: 16px;&quot;&gt;&lt;span style=&quot;white-space: pre; font-size: 16px;&quot;&gt; &lt;/span&gt;precio: double&lt;/div&gt;&lt;div style=&quot;font-size: 16px;&quot;&gt;}&lt;br style=&quot;font-size: 16px;&quot;&gt;&lt;/div&gt;&lt;/blockquote&gt;" style="whiteSpace=wrap;html=1;rounded=1;align=left;fontSize=16;" parent="1" vertex="1">
          <mxGeometry x="1600" y="455" width="240" height="200" as="geometry" />
        </mxCell>
        <mxCell id="uF5zOVgeTpPPdyDhm0qI-3" value="" style="edgeStyle=orthogonalEdgeStyle;rounded=0;orthogonalLoop=1;jettySize=auto;html=1;" parent="1" source="uF5zOVgeTpPPdyDhm0qI-1" target="uF5zOVgeTpPPdyDhm0qI-2" edge="1">
          <mxGeometry relative="1" as="geometry">
            <Array as="points">
              <mxPoint x="1130" y="1080" />
              <mxPoint x="1130" y="950" />
            </Array>
          </mxGeometry>
        </mxCell>
        <mxCell id="uF5zOVgeTpPPdyDhm0qI-5" value="" style="edgeStyle=orthogonalEdgeStyle;rounded=0;orthogonalLoop=1;jettySize=auto;html=1;" parent="1" source="uF5zOVgeTpPPdyDhm0qI-1" target="uF5zOVgeTpPPdyDhm0qI-4" edge="1">
          <mxGeometry relative="1" as="geometry">
            <Array as="points">
              <mxPoint x="1130" y="1080" />
              <mxPoint x="1130" y="1180" />
            </Array>
          </mxGeometry>
        </mxCell>
        <mxCell id="uF5zOVgeTpPPdyDhm0qI-1" value="App" style="rounded=1;whiteSpace=wrap;html=1;" parent="1" vertex="1">
          <mxGeometry x="960" y="1050" width="120" height="60" as="geometry" />
        </mxCell>
        <mxCell id="uF5zOVgeTpPPdyDhm0qI-7" value="" style="edgeStyle=orthogonalEdgeStyle;rounded=0;orthogonalLoop=1;jettySize=auto;html=1;" parent="1" source="uF5zOVgeTpPPdyDhm0qI-2" target="uF5zOVgeTpPPdyDhm0qI-6" edge="1">
          <mxGeometry relative="1" as="geometry">
            <Array as="points">
              <mxPoint x="1360" y="950" />
              <mxPoint x="1360" y="880" />
            </Array>
          </mxGeometry>
        </mxCell>
        <mxCell id="uF5zOVgeTpPPdyDhm0qI-9" value="" style="edgeStyle=orthogonalEdgeStyle;rounded=0;orthogonalLoop=1;jettySize=auto;html=1;" parent="1" source="uF5zOVgeTpPPdyDhm0qI-2" target="uF5zOVgeTpPPdyDhm0qI-8" edge="1">
          <mxGeometry relative="1" as="geometry">
            <Array as="points">
              <mxPoint x="1360" y="950" />
              <mxPoint x="1360" y="990" />
            </Array>
          </mxGeometry>
        </mxCell>
        <mxCell id="uF5zOVgeTpPPdyDhm0qI-2" value="Public" style="whiteSpace=wrap;html=1;rounded=1;" parent="1" vertex="1">
          <mxGeometry x="1181" y="920" width="120" height="60" as="geometry" />
        </mxCell>
        <mxCell id="uF5zOVgeTpPPdyDhm0qI-11" value="" style="edgeStyle=orthogonalEdgeStyle;rounded=0;orthogonalLoop=1;jettySize=auto;html=1;" parent="1" source="uF5zOVgeTpPPdyDhm0qI-4" target="uF5zOVgeTpPPdyDhm0qI-10" edge="1">
          <mxGeometry relative="1" as="geometry">
            <Array as="points">
              <mxPoint x="1350" y="1180" />
              <mxPoint x="1350" y="1110" />
            </Array>
          </mxGeometry>
        </mxCell>
        <mxCell id="uF5zOVgeTpPPdyDhm0qI-13" value="" style="edgeStyle=orthogonalEdgeStyle;rounded=0;orthogonalLoop=1;jettySize=auto;html=1;" parent="1" source="uF5zOVgeTpPPdyDhm0qI-4" target="uF5zOVgeTpPPdyDhm0qI-12" edge="1">
          <mxGeometry relative="1" as="geometry">
            <Array as="points">
              <mxPoint x="1350" y="1180" />
              <mxPoint x="1350" y="1220" />
            </Array>
          </mxGeometry>
        </mxCell>
        <mxCell id="uF5zOVgeTpPPdyDhm0qI-4" value="Admin" style="whiteSpace=wrap;html=1;rounded=1;" parent="1" vertex="1">
          <mxGeometry x="1181" y="1150" width="120" height="60" as="geometry" />
        </mxCell>
        <mxCell id="uF5zOVgeTpPPdyDhm0qI-6" value="Home" style="whiteSpace=wrap;html=1;rounded=1;" parent="1" vertex="1">
          <mxGeometry x="1400" y="850" width="120" height="60" as="geometry" />
        </mxCell>
        <mxCell id="uF5zOVgeTpPPdyDhm0qI-8" value="Contact" style="whiteSpace=wrap;html=1;rounded=1;" parent="1" vertex="1">
          <mxGeometry x="1400" y="960" width="120" height="60" as="geometry" />
        </mxCell>
        <mxCell id="uF5zOVgeTpPPdyDhm0qI-10" value="Dashboard" style="whiteSpace=wrap;html=1;rounded=1;" parent="1" vertex="1">
          <mxGeometry x="1400" y="1080" width="120" height="60" as="geometry" />
        </mxCell>
        <mxCell id="uF5zOVgeTpPPdyDhm0qI-12" value="Users" style="whiteSpace=wrap;html=1;rounded=1;" parent="1" vertex="1">
          <mxGeometry x="1400" y="1190" width="120" height="60" as="geometry" />
        </mxCell>
        <mxCell id="uF5zOVgeTpPPdyDhm0qI-15" value="&lt;h1&gt;Flujo Aplicación Web&lt;br&gt;&lt;/h1&gt;&lt;p&gt;Lorem ipsum dolor sit amet, consectetur adipisicing elit, sed do eiusmod tempor incididunt ut labore et dolore magna aliqua.&lt;/p&gt;" style="text;html=1;strokeColor=none;fillColor=none;spacing=5;spacingTop=-20;whiteSpace=wrap;overflow=hidden;rounded=0;" parent="1" vertex="1">
          <mxGeometry x="1000" y="760" width="350" height="120" as="geometry" />
        </mxCell>
        <mxCell id="DRcsGCBEmc8T6zH1IEWi-1" value="http://localhost:4200" style="text;html=1;strokeColor=none;fillColor=none;align=center;verticalAlign=middle;whiteSpace=wrap;rounded=0;" vertex="1" parent="1">
          <mxGeometry x="990" y="1020" width="60" height="30" as="geometry" />
        </mxCell>
        <mxCell id="DRcsGCBEmc8T6zH1IEWi-2" value="Path: /" style="text;html=1;strokeColor=none;fillColor=none;align=center;verticalAlign=middle;whiteSpace=wrap;rounded=0;" vertex="1" parent="1">
          <mxGeometry x="1400" y="820" width="120" height="30" as="geometry" />
        </mxCell>
        <mxCell id="DRcsGCBEmc8T6zH1IEWi-3" value="Path: /contact" style="text;html=1;strokeColor=none;fillColor=none;align=center;verticalAlign=middle;whiteSpace=wrap;rounded=0;" vertex="1" parent="1">
          <mxGeometry x="1400" y="935" width="120" height="30" as="geometry" />
        </mxCell>
        <mxCell id="DRcsGCBEmc8T6zH1IEWi-4" value="Path: /" style="text;html=1;strokeColor=none;fillColor=none;align=center;verticalAlign=middle;whiteSpace=wrap;rounded=0;" vertex="1" parent="1">
          <mxGeometry x="1400" y="1050" width="120" height="30" as="geometry" />
        </mxCell>
        <mxCell id="DRcsGCBEmc8T6zH1IEWi-5" value="Path: /users" style="text;html=1;strokeColor=none;fillColor=none;align=center;verticalAlign=middle;whiteSpace=wrap;rounded=0;" vertex="1" parent="1">
          <mxGeometry x="1400" y="1165" width="120" height="30" as="geometry" />
        </mxCell>
        <mxCell id="DRcsGCBEmc8T6zH1IEWi-6" value="Path: /home" style="text;html=1;strokeColor=none;fillColor=none;align=center;verticalAlign=middle;whiteSpace=wrap;rounded=0;" vertex="1" parent="1">
          <mxGeometry x="1181" y="890" width="120" height="30" as="geometry" />
        </mxCell>
        <mxCell id="DRcsGCBEmc8T6zH1IEWi-7" value="Path: /admin" style="text;html=1;strokeColor=none;fillColor=none;align=center;verticalAlign=middle;whiteSpace=wrap;rounded=0;" vertex="1" parent="1">
          <mxGeometry x="1181" y="1120" width="120" height="30" as="geometry" />
        </mxCell>
        <mxCell id="DRcsGCBEmc8T6zH1IEWi-8" value="Path: /home" style="text;html=1;strokeColor=none;fillColor=none;align=center;verticalAlign=middle;whiteSpace=wrap;rounded=0;" vertex="1" parent="1">
          <mxGeometry x="1520" y="830" width="120" height="30" as="geometry" />
        </mxCell>
        <mxCell id="DRcsGCBEmc8T6zH1IEWi-9" value="" style="endArrow=none;html=1;rounded=0;exitX=0;exitY=0.25;exitDx=0;exitDy=0;" edge="1" parent="1">
          <mxGeometry width="50" height="50" relative="1" as="geometry">
            <mxPoint x="1527" y="843.5" as="sourcePoint" />
            <mxPoint x="1627" y="846" as="targetPoint" />
          </mxGeometry>
        </mxCell>
        <mxCell id="DRcsGCBEmc8T6zH1IEWi-10" value="Path: /dashboard" style="text;html=1;strokeColor=none;fillColor=none;align=center;verticalAlign=middle;whiteSpace=wrap;rounded=0;" vertex="1" parent="1">
          <mxGeometry x="1530" y="1065" width="120" height="30" as="geometry" />
        </mxCell>
        <mxCell id="DRcsGCBEmc8T6zH1IEWi-11" value="" style="endArrow=none;html=1;rounded=0;exitX=0;exitY=0.25;exitDx=0;exitDy=0;" edge="1" parent="1">
          <mxGeometry width="50" height="50" relative="1" as="geometry">
            <mxPoint x="1540" y="1077.5" as="sourcePoint" />
            <mxPoint x="1640" y="1080" as="targetPoint" />
          </mxGeometry>
        </mxCell>
        <mxCell id="DRcsGCBEmc8T6zH1IEWi-12" value="router-outlet" style="text;html=1;strokeColor=none;fillColor=none;align=center;verticalAlign=middle;whiteSpace=wrap;rounded=0;" vertex="1" parent="1">
          <mxGeometry x="980" y="1110" width="80" height="30" as="geometry" />
        </mxCell>
        <mxCell id="DRcsGCBEmc8T6zH1IEWi-13" value="router-outlet" style="text;html=1;strokeColor=none;fillColor=none;align=center;verticalAlign=middle;whiteSpace=wrap;rounded=0;" vertex="1" parent="1">
          <mxGeometry x="1200" y="980" width="80" height="30" as="geometry" />
        </mxCell>
        <mxCell id="DRcsGCBEmc8T6zH1IEWi-14" value="router-outlet" style="text;html=1;strokeColor=none;fillColor=none;align=center;verticalAlign=middle;whiteSpace=wrap;rounded=0;" vertex="1" parent="1">
          <mxGeometry x="1201" y="1210" width="80" height="30" as="geometry" />
        </mxCell>
      </root>
    </mxGraphModel>
  </diagram>
</mxfile>
